INDEX VERSION 1.129+C:\html_study\work\.metadata\.plugins\org.eclipse.jdt.core
2167310551.index
4059420621.index
486699731.index
1032721043.index
3256285438.index
1513356472.index
3449181896.index
2977965590.index
3904852536.index
2094640584.index
1961548281.index
2708994788.index
1904741536.index
2312443017.index
1840855426.index
375126478.index
280060055.index
1524789497.index
2831536327.index
2042668377.index
1845500970.index
860090970.index
1847969816.index
1583927216.index
2985131051.index
1496099176.index
3672553561.index
4166838873.index
2221026913.index
732653012.index
188619105.index
1241615571.index
4257584766.index
3681335767.index
247961039.index
2276207599.index
2017505986.index
2927524569.index
1711350197.index
4048635519.index
3878457715.index
1004716384.index
1233368779.index
4144520302.index
3216578928.index
24755599.index
3119455041.index
4157922950.index
257369702.index
3172068124.index
2687641673.index
3581163120.index
