127.0.0.1 - - [16/Mar/2017:11:00:31 +0900] "GET / HTTP/1.1" 404 988
0:0:0:0:0:0:0:1 - - [16/Mar/2017:11:00:32 +0900] "GET /bbs/ HTTP/1.1" 404 996
0:0:0:0:0:0:0:1 - - [16/Mar/2017:11:00:39 +0900] "GET /bbs/list.inc HTTP/1.1" 404 1012
127.0.0.1 - - [16/Mar/2017:11:06:57 +0900] "GET / HTTP/1.1" 404 988
0:0:0:0:0:0:0:1 - - [16/Mar/2017:11:06:57 +0900] "GET /bbs/ HTTP/1.1" 200 165
0:0:0:0:0:0:0:1 - - [16/Mar/2017:11:07:02 +0900] "GET /bbs/list.inc HTTP/1.1" 404 986
127.0.0.1 - - [16/Mar/2017:11:10:19 +0900] "GET / HTTP/1.1" 404 988
0:0:0:0:0:0:0:1 - - [16/Mar/2017:11:10:19 +0900] "GET /bbs/ HTTP/1.1" 200 165
0:0:0:0:0:0:0:1 - - [16/Mar/2017:11:10:27 +0900] "GET /bbs/list.inc HTTP/1.1" 500 4414
127.0.0.1 - - [16/Mar/2017:11:16:36 +0900] "GET / HTTP/1.1" 404 988
0:0:0:0:0:0:0:1 - - [16/Mar/2017:11:16:37 +0900] "GET /bbs/ HTTP/1.1" 200 165
0:0:0:0:0:0:0:1 - - [16/Mar/2017:11:16:43 +0900] "GET /bbs/list.inc HTTP/1.1" 500 4414
127.0.0.1 - - [16/Mar/2017:11:22:26 +0900] "GET / HTTP/1.1" 404 988
0:0:0:0:0:0:0:1 - - [16/Mar/2017:11:22:27 +0900] "GET /bbs/ HTTP/1.1" 200 165
0:0:0:0:0:0:0:1 - - [16/Mar/2017:11:22:33 +0900] "GET /bbs/list.inc HTTP/1.1" 500 4414
127.0.0.1 - - [16/Mar/2017:11:25:45 +0900] "GET / HTTP/1.1" 404 988
0:0:0:0:0:0:0:1 - - [16/Mar/2017:11:25:45 +0900] "GET /bbs/ HTTP/1.1" 200 165
0:0:0:0:0:0:0:1 - - [16/Mar/2017:11:25:51 +0900] "GET /bbs/list.inc HTTP/1.1" 500 5290
127.0.0.1 - - [16/Mar/2017:11:28:34 +0900] "GET / HTTP/1.1" 404 988
0:0:0:0:0:0:0:1 - - [16/Mar/2017:11:28:35 +0900] "GET /bbs/ HTTP/1.1" 200 165
0:0:0:0:0:0:0:1 - - [16/Mar/2017:11:28:40 +0900] "GET /bbs/list.inc HTTP/1.1" 500 5290
0:0:0:0:0:0:0:1 - - [16/Mar/2017:11:29:21 +0900] "GET /bbs/ HTTP/1.1" 200 165
127.0.0.1 - - [16/Mar/2017:11:29:42 +0900] "GET / HTTP/1.1" 404 988
0:0:0:0:0:0:0:1 - - [16/Mar/2017:11:29:43 +0900] "GET /bbs/ HTTP/1.1" 200 165
0:0:0:0:0:0:0:1 - - [16/Mar/2017:11:29:51 +0900] "GET /bbs/list.inc HTTP/1.1" 500 5290
127.0.0.1 - - [16/Mar/2017:11:31:57 +0900] "GET / HTTP/1.1" 404 988
0:0:0:0:0:0:0:1 - - [16/Mar/2017:11:31:57 +0900] "GET /bbs/ HTTP/1.1" 200 165
0:0:0:0:0:0:0:1 - - [16/Mar/2017:11:32:03 +0900] "GET /bbs/list.inc HTTP/1.1" 200 6365
0:0:0:0:0:0:0:1 - - [16/Mar/2017:11:32:03 +0900] "GET /bbs/css/text.css HTTP/1.1" 404 986
0:0:0:0:0:0:0:1 - - [16/Mar/2017:11:32:03 +0900] "GET /images/sub_it/point_line.gif HTTP/1.1" 404 1044
0:0:0:0:0:0:0:1 - - [16/Mar/2017:11:32:03 +0900] "GET /bbs/images/but_write.gif HTTP/1.1" 404 986
0:0:0:0:0:0:0:1 - - [16/Mar/2017:11:32:03 +0900] "GET /bbs/images/arrow.JPG HTTP/1.1" 404 986
0:0:0:0:0:0:0:1 - - [16/Mar/2017:11:33:44 +0900] "GET /bbs/list.inc HTTP/1.1" 200 6414
0:0:0:0:0:0:0:1 - - [16/Mar/2017:11:33:44 +0900] "GET /bbs/resources/css/text.css HTTP/1.1" 200 2592
0:0:0:0:0:0:0:1 - - [16/Mar/2017:11:33:44 +0900] "GET /bbs/resources/images/arrow.JPG HTTP/1.1" 200 848
0:0:0:0:0:0:0:1 - - [16/Mar/2017:11:33:44 +0900] "GET /bbs/resources/images/sub_it/point_line.gif HTTP/1.1" 404 986
0:0:0:0:0:0:0:1 - - [16/Mar/2017:11:33:44 +0900] "GET /bbs/images/but_write.gif HTTP/1.1" 404 986
0:0:0:0:0:0:0:1 - - [16/Mar/2017:11:34:06 +0900] "GET /bbs/list.inc HTTP/1.1" 200 6424
0:0:0:0:0:0:0:1 - - [16/Mar/2017:11:34:06 +0900] "GET /bbs/resources/css/text.css HTTP/1.1" 304 -
0:0:0:0:0:0:0:1 - - [16/Mar/2017:11:34:06 +0900] "GET /bbs/resources/images/sub_it/point_line.gif HTTP/1.1" 404 986
0:0:0:0:0:0:0:1 - - [16/Mar/2017:11:34:06 +0900] "GET /bbs/resources/images/arrow.JPG HTTP/1.1" 304 -
0:0:0:0:0:0:0:1 - - [16/Mar/2017:11:34:06 +0900] "GET /bbs/resources/images/but_write.gif HTTP/1.1" 200 226
0:0:0:0:0:0:0:1 - - [16/Mar/2017:11:34:10 +0900] "GET /bbs/view.inc?seq=11&nowPage=1 HTTP/1.1" 200 3384
0:0:0:0:0:0:0:1 - - [16/Mar/2017:11:34:10 +0900] "GET /images/sub_it/point_line.gif HTTP/1.1" 404 1044
0:0:0:0:0:0:0:1 - - [16/Mar/2017:11:34:10 +0900] "GET /bbs/text.css HTTP/1.1" 404 986
0:0:0:0:0:0:0:1 - - [16/Mar/2017:11:34:10 +0900] "GET /bbs/images/button/but_answer.gif HTTP/1.1" 404 986
0:0:0:0:0:0:0:1 - - [16/Mar/2017:11:34:10 +0900] "GET /bbs/images/button/but_modify.gif HTTP/1.1" 404 986
0:0:0:0:0:0:0:1 - - [16/Mar/2017:11:34:10 +0900] "GET /bbs/images/button/but_list.gif HTTP/1.1" 404 986
0:0:0:0:0:0:0:1 - - [16/Mar/2017:11:34:10 +0900] "GET /bbs/images/button/but_undel.gif HTTP/1.1" 404 986
