INDEX VERSION 1.129+C:\STS_Study\work\.metadata\.plugins\org.eclipse.jdt.core
3530161234.index
1705119665.index
666574767.index
1024567736.index
1622948755.index
2042038796.index
272838029.index
1695476979.index
2458109798.index
470416820.index
651230961.index
2045020760.index
3119455041.index
3810790640.index
1146935184.index
4166838873.index
208523544.index
1904741536.index
2215961549.index
2017505986.index
4256176000.index
3769693003.index
3878457715.index
2701814839.index
3190537174.index
3256285438.index
188619105.index
3689480686.index
1855292331.index
2312443017.index
1338397245.index
3681335767.index
92091229.index
3906716755.index
3862961145.index
713741048.index
2281727079.index
903861131.index
3644484327.index
1004716384.index
2325221835.index
3534466167.index
3172068124.index
1762924267.index
2831536327.index
1847969816.index
3660001058.index
3082019879.index
2167310551.index
3269655010.index
1843692671.index
2462324596.index
1022144525.index
2578890934.index
1651717503.index
1390775005.index
3189012020.index
1583927216.index
375126478.index
743862007.index
4109082430.index
486699731.index
2173463816.index
229093443.index
572120284.index
1149191603.index
1679356009.index
610774918.index
2927524569.index
1481403748.index
981677090.index
3075544950.index
1057233406.index
2780576794.index
